…
      strava_db <- open_dataset(
        paths_meas, format = "arrow", schema = act_col_types) |>
        to_duckdb()

      df_strava_poi <- strava_db |>
        filter(
          lng >= lng_min, lng <= lng_max, lat >= lat_min, lat <= lat_max) |>
        select(-heartrate) |>
        collect() |>
        left_join(select(df_act, id, type, start_date), by = "id")
    }

    ## # A tibble: 40,439 × 13
    ##    moving velocity_smooth grade_smooth distance altitude  time   lat   lng
    ##    <lgl>            <dbl>        <dbl>    <dbl>    <dbl> <int> <dbl> <dbl>
    ##  1 TRUE               3            3.4   22882.     637.  3925  48.2  8.85
    ##  2 TRUE               3            1.7   22885.     637.  3926  48.2  8.85
    ##  3 TRUE               2.9          3.4   22887.     637   3927  48.2  8.85
    ##  4 TRUE               3            3.4   22890.     637   3928  48.2  8.85
    ##  5 TRUE               2.9          3.3   22893.     637.  3929  48.2  8.85
    ##  6 TRUE               3            3.3   22896.     637.  3930  48.2  8.85
    ##  7 TRUE               2.9          3.3   22899.     637.  3931  48.2  8.85
    ##  8 TRUE               3            5     22902.     637.  3932  48.2  8.85
    ##  9 TRUE               3            4.9   22905.     638.  3933  48.2  8.85
    ## 10 TRUE               3            6.7   22908.     638.  3934  48.2  8.85
    ## # … with 40,429 more rows, and 5 more variables: cadence <int>, watts <int>,
    ## #   id <chr>, type <chr>, start_date <dttm>
…
    lochen <- function(df_lochen_raw) {
      df_lochen_raw |>
        group_by(id) |>
        mutate(
          time_delta = time - lag(time),
          start_date = as_date(start_date)) |>
        replace_na(list(time_delta = 0)) |>
        filter(moving) |>
        mutate(time = cumsum(time_delta)) |>
        select(-time_delta)
    }

    ## # A tibble: 40,365 × 13
    ## # Groups:   id [36]
    ##    moving velocity_smooth grade_smooth distance altitude  time   lat   lng
    ##    <lgl>            <dbl>        <dbl>    <dbl>    <dbl> <int> <dbl> <dbl>
    ##  1 TRUE               3            3.4   22882.     637.     0  48.2  8.85
    ##  2 TRUE               3            1.7   22885.     637.     1  48.2  8.85
    ##  3 TRUE               2.9          3.4   22887.     637      2  48.2  8.85
    ##  4 TRUE               3            3.4   22890.     637      3  48.2  8.85
    ##  5 TRUE               2.9          3.3   22893.     637.     4  48.2  8.85
    ##  6 TRUE               3            3.3   22896.     637.     5  48.2  8.85
    ##  7 TRUE               2.9          3.3   22899.     637.     6  48.2  8.85
    ##  8 TRUE               3            5     22902.     637.     7  48.2  8.85
    ##  9 TRUE               3            4.9   22905.     638.     8  48.2  8.85
    ## 10 TRUE               3            6.7   22908.     638.     9  48.2  8.85
    ## # … with 40,355 more rows, and 5 more variables: cadence <int>, watts <int>,
    ## #   id <chr>, type <chr>, start_date <date>
…
